Animal-Tracking in Biologia della Conservazione — 2023/2024 - Animal tracking nella biologia della conservazione
…
### 1. Directly downloading data from Movebank ####

# For the actual download we will look at three functions:
# movebank_download_study_info() movebank_download_deployment() movebank_download_study()

### store the movebank credentials for the most used account.
# you will be promped to set a keyring password
# by default this will be stored in the key list as service="movebank"
movebank_store_credentials("RBook", "Obstberg1")

### Browse the Movebank database
# get the metadata of the studies visible from this account
(allStudies <- movebank_download_study_info())

# A tibble: 6,828 × 31
   acknowledgements           citation go_public_date grants_used      has_quota
   <chr>                      <chr>    <dttm>         <chr>            <lgl>    
 1  <NA>                      <NA>     NA              <NA>            TRUE     
 2  <NA>                      <NA>     NA              <NA>            TRUE     
 3 "Supported by the Max-Pla… <NA>     NA              <NA>            TRUE     
 4  <NA>                      <NA>     NA              <NA>            TRUE     
 5 "Graduate students in the… MCKINNO… NA             "Natural Scienc… TRUE     
 6  <NA>                      <NA>     NA              <NA>            TRUE     
 7 "Universidad Estatal de S… <NA>     NA             "Comisión Feder… TRUE     
 8  <NA>                      <NA>     NA              <NA>            TRUE     
 9  <NA>                      <NA>     NA              <NA>            TRUE     
10  <NA>                      <NA>     NA              <NA>            TRUE     
# ℹ 6,818 more rows
# ℹ 26 more variables: i_am_owner <lgl>, id <int64>, is_test <lgl>,
#   license_terms <chr>, license_type <fct>, name <fct>,
#   number_of_individuals [count], number_of_tags [count],
#   principal_investigator_address <chr>, principal_investigator_email <chr>,
#   principal_investigator_name <chr>, study_objective <chr>, study_type <fct>,
#   suspend_license_terms <lgl>, i_can_see_data <lgl>, …

Get data from Movebank

# list studies for which we have download access
movebank_download_study_info(i_have_download_access=T)

# A tibble: 821 × 31
   acknowledgements           citation go_public_date grants_used      has_quota
   <chr>                      <chr>    <dttm>         <chr>            <lgl>    
 1 "Graduate students in the… "MCKINN… NA             "Natural Scienc… TRUE     
 2 "This research was conduc…  <NA>    NA             "the Sea to Sou… TRUE     
 3  <NA>                      "Therri… NA              <NA>            TRUE     
 4  <NA>                      "Knieri… NA             "Suwanwaree, P.… TRUE     
 5 "<b>1990s field study</b>… "</br>P… NA             "<b>1990s field… TRUE     
 6 "Nicola Palmer"             <NA>    NA              <NA>            TRUE     
 7 "MPIAB"                     <NA>    NA             "MPIAB"          TRUE     
 8  <NA>                      "Carras… NA              <NA>            TRUE     
 9  <NA>                       <NA>    NA              <NA>            TRUE     
10 "These data were collecte… "Dokter… NA             "ZKO grant NWO,… TRUE     
# ℹ 811 more rows
# ℹ 26 more variables: i_am_owner <lgl>, id <int64>, is_test <lgl>,
#   license_terms <chr>, license_type <fct>, name <fct>,
#   number_of_individuals [count], number_of_tags [count],
#   principal_investigator_address <chr>, principal_investigator_email <chr>,
#   principal_investigator_name <chr>, study_objective <chr>, study_type <fct>,
#   suspend_license_terms <lgl>, i_can_see_data <lgl>, …
…
# A tibble: 1 × 3
       id name                               number_of_deployed_locations
  <int64> <fct>                                                   [count]
1 1918503 Parti-colored bat Safi Switzerland                         1740

. . .

# retrieve all sensor ids recognized by Movebank
movebank_retrieve(
  entity_type = "tag_type",
  attributes = c("external_id", "id")
)

# A tibble: 21 × 2
   external_id                  id
   <chr>                   <int64>
 1 bird-ring                   397
 2 gps                         653
 3 radio-transmitter           673
 4 argos-doppler-shift       82798
 5 natural-mark            2365682
 6 acceleration            2365683
 7 solar-geolocator        3886361
 8 accessory-measurements  7842954
 9 solar-geolocator-raw    9301403
10 barometer              77740391
# ℹ 11 more rows
…
Get data from Movebank

### Download LOCATION data as a move2 object ----
### download all data (all sensors, all animals)
movebank_download_study(study_id = 1918503) 

A <move2> with `track_id_column` "individual_local_identifier" and
`time_column` "timestamp"
Containing 17 tracks lasting on average 7.22 days in a
Simple feature collection with 1740 features and 7 fields
Geometry type: POINT
Dimension:     XY
Bounding box:  xmin: 7.026008 ymin: 46.89989 xmax: 8.693484 ymax: 47.65558
Geodetic CRS:  WGS 84
# A tibble: 1,740 × 8
   sensor_type_id individual_local_identifier tag_local_identifier
          <int64> <fct>                       <fct>               
 1            673 191                         <NA>                
 2            673 191                         <NA>                
 3            673 191                         <NA>                
 4            673 191                         <NA>                
 5            673 191                         <NA>                
 6            673 191                         <NA>                
 7            673 191                         <NA>                
 8            673 191                         <NA>                
 9            673 191                         <NA>                
10            673 191                         <NA>                
# ℹ 1,730 more rows
# ℹ 5 more variables: manually_marked_outlier <lgl>, timestamp <dttm>,
#   visible <lgl>, event_id <int64>, geometry <POINT [°]>
First 10 track features:
# A tibble: 17 × 40
   deployment_id  tag_id individual_id sensor_type_ids capture_location
         <int64> <int64>       <int64> <chr>                <POINT [°]>
 1       1918729 1918728       1918727 radio-transmit…            EMPTY
 2       1918750 1918749       1918748 radio-transmit…            EMPTY
 3       1918741 1918740       1918739 radio-transmit…            EMPTY
 4       1918738 1918737       1918736 radio-transmit…            EMPTY
 5       1918735 1918734       1918733 radio-transmit…            EMPTY
 6       1918726 1918725       1918724 radio-transmit…            EMPTY
 7       1918747 1918746       1918745 radio-transmit…            EMPTY
 8       1918732 1918731       1918730 radio-transmit…            EMPTY
 9       1918744 1918743       1918742 radio-transmit…            EMPTY
10       1918934 1918933       1918932 radio-transmit…            EMPTY
# ℹ 7 more rows
# ℹ 35 more variables: deploy_on_location <POINT [°]>,
#   deploy_off_location <POINT [°]>, individual_local_identifier <fct>,
#   sex <fct>, taxon_canonical_name <fct>,
#   individual_number_of_deployments <int>, mortality_location <POINT [°]>,
#   tag_number_of_deployments <int>, study_id <int64>, acknowledgements <chr>,
#   citation <chr>, has_quota <lgl>, i_am_owner <lgl>, is_test <lgl>, …
…
